{"count": 20, "overflow": true, "next": "https://api.predicthq.com/v1/events/?country=GR&offset=10", "previous": null, "results": [{"relevance": 1.0, "id": "WZxdyFuXzcuGc24oBv", "title": "Voltage Welcomes Marika Rossa", "description": "", "category": "concerts", "labels": ["concert", "music"], "rank": 41, "local_rank": 47, "entities": [{"type": "venue", "entity_id": "JE7FBtfYBF3EamHhaRjdsd", "formatted_address": "Evrymedontos 3\nAthens\nGreece", "name": "STEAM ATHENS"}], "duration": 30660, "start": "2019-12-20T21:59:00Z", "end": "2019-12-21T06:30:00Z", "updated": "2019-10-12T15:54:06Z", "first_seen": "2019-10-12T15:53:57Z", "timezone": "Europe/Athens", "location": [23.713347, 37.980824], "scope": "locality", "country": "GR", "place_hierarchies": [["6295630", "6255148", "390903", "6692632", "445408", "8133876", "264371"]], "state": "active"}, {"relevance": 1.0, "id": "pNFeA7zTrBGQAg9Q8z", "title": "Jim Jefferies Athina", "description": "", "category": "performing-arts", "labels": ["performing-arts"], "rank": 62, "local_rank": 69, "entities": [{"type": "venue", "entity_id": "TS9xKqCiVZU3RNeffEHsPj", "formatted_address": "7 Iera Odos\n118 54 Athina\nGreece", "name": "Gazi Music Hall"}], "duration": 0, "start": "2019-12-19T19:00:00Z", "end": "2019-12-19T19:00:00Z", "updated": "2019-06-16T18:16:48Z", "first_seen": "2019-06-14T17:39:40Z", "timezone": "Europe/Athens", "location": [23.715161, 37.979423], "scope": "locality", "country": "GR", "place_hierarchies": [["6295630", "6255148", "390903", "6692632", "445408", "8133876", "264371"]], "state": "active"}, {"relevance": 1.0, "id": "6ucePmdEtL9HNj4ohM", "title": "Oedipus Rex by Sophocles", "description": "For the first time, a performance of Ancient Theater play will take place in the center of the city drama was born. The play \u201cOedipus Rex\u201d by Sophocles, a script of 5th century BC with English and French subtitles will be a unique experience for foreigners as Athens is the city Drama was born.", "category": "performing-arts", "labels": ["performing-arts"], "rank": 11, "local_rank": 16, "entities": [{"type": "venue", "entity_id": "UT8cFJ2N8HRZ6S9BLtUH5A", "formatted_address": "Kastorias 34-36\nAthens\nGreece", "name": "ATHINAIS"}], "duration": 0, "start": "2019-12-19T18:30:00Z", "end": "2019-12-19T18:30:00Z", "updated": "2019-09-04T15:46:23Z", "first_seen": "2019-09-04T15:46:15Z", "timezone": "Europe/Athens", "location": [23.71102, 37.983588], "scope": "locality", "country": "GR", "place_hierarchies": [["6295630", "6255148", "390903", "6692632", "445408", "8133876", "264371"]], "state": "active"}, {"relevance": 1.0, "id": "2mtwBz69QwXv5niZ5M", "title": "Super League 1 - Panionios vs PAOK", "description": "", "category": "sports", "labels": ["soccer", "sport"], "rank": 71, "local_rank": 76, "entities": [{"type": "venue", "entity_id": "b3H3VYhqCSygepNcpX4C6h", "formatted_address": "Chrisostomou\n171 22 Nea Smirni\nGreece", "name": "Nea Smyrni Stadium"}], "duration": 0, "start": "2019-12-19T17:30:00Z", "end": "2019-12-19T17:30:00Z", "updated": "2019-10-23T20:00:37Z", "first_seen": "2019-07-03T17:45:00Z", "timezone": "Europe/Athens", "location": [23.70923, 37.943101], "scope": "locality", "country": "GR", "place_hierarchies": [["6295630", "6255148", "390903", "6692632", "445408", "8133876", "264371"], ["6295630", "6255148", "390903", "6692632", "445408", "8133665", "256575"]], "state": "active"}, {"relevance": 1.0, "id": "ezbGnrXRDiAMkUNfg6", "title": "Super League 1 - Aris vs Volos NFC", "description": "", "category": "sports", "labels": ["soccer", "sport"], "rank": 77, "local_rank": 86, "entities": [{"type": "venue", "entity_id": "WANPvbfJ4ajVss8Y72M2zT", "formatted_address": "69 Alkminis, Charilaou\nThessalon\u00edki\nGreece", "name": "Stadio Harilaou Kle\u00e1nthis Vikel\u00eddis"}], "duration": 0, "start": "2019-12-19T15:15:00Z", "end": "2019-12-19T15:15:00Z", "updated": "2019-10-23T20:00:34Z", "first_seen": "2019-07-03T17:44:58Z", "timezone": "Europe/Athens", "location": [22.969612, 40.600114], "scope": "locality", "country": "GR", "place_hierarchies": [["6295630", "6255148", "390903", "6697801", "734075", "8133774", "734643"], ["6295630", "6255148", "390903", "6697801", "734075", "8133841", "734077"]], "state": "active"}, {"relevance": 1.0, "id": "Swxq7FQ9E6ormxkBqN", "title": "Euroleague - Olympiacos vs Khimki", "description": "", "category": "sports", "labels": ["basketball", "sport"], "rank": 72, "local_rank": 80, "entities": [{"type": "venue", "entity_id": "T9qcQutLGff2fd5sSSwfPk", "formatted_address": "185 33 Pireas\nGreece", "name": "Peace and Friendship Stadium"}], "duration": 0, "start": "2019-12-18T19:00:00Z", "end": "2019-12-18T19:00:00Z", "updated": "2019-08-07T04:37:21Z", "first_seen": "2019-08-06T02:39:14Z", "timezone": "Europe/Athens", "location": [23.667726, 37.942391], "scope": "locality", "country": "GR", "place_hierarchies": [["6295630", "6255148", "390903", "6692632", "445408", "8133876", "264371"], ["6295630", "6255148", "390903", "6692632", "445408", "8133676", "256750"]], "state": "active"}, {"relevance": 1.0, "id": "mYN83XjdkDf6zUajPD", "title": "BC Khimki Moscow vs BC Olympiakos Piraeus", "description": "", "category": "sports", "labels": ["basketball", "sport"], "rank": 72, "local_rank": 80, "entities": [{"type": "venue", "entity_id": "T9qcQutLGff2fd5sSSwfPk", "formatted_address": "185 33 Pireas\nGreece", "name": "Peace and Friendship Stadium"}], "duration": 0, "start": "2019-12-18T19:00:00Z", "end": "2019-12-18T19:00:00Z", "updated": "2019-07-21T09:51:42Z", "first_seen": "2019-07-21T09:51:21Z", "timezone": "Europe/Athens", "location": [23.667726, 37.942391], "scope": "locality", "country": "GR", "place_hierarchies": [["6295630", "6255148", "390903", "6692632", "445408", "8133876", "264371"], ["6295630", "6255148", "390903", "6692632", "445408", "8133676", "256750"]], "state": "active"}, {"relevance": 1.0, "id": "5CPdWD4hNUpCTumSuU", "title": "Super League 1 - Atromitos vs Lamia", "description": "", "category": "sports", "labels": ["soccer", "sport"], "rank": 69, "local_rank": 76, "entities": [{"type": "venue", "entity_id": "7Nj2RBgFQviAB6Laf6yGeh", "formatted_address": "93 Giannitson, Peristeri\nAth\u00edna (Athens)\nGreece", "name": "Stadio Peristeriou"}], "duration": 0, "start": "2019-12-18T17:30:00Z", "end": "2019-12-18T17:30:00Z", "updated": "2019-10-23T20:00:45Z", "first_seen": "2019-07-03T17:44:58Z", "timezone": "Europe/Athens", "location": [23.689849, 38.005023], "scope": "locality", "country": "GR", "place_hierarchies": [["6295630", "6255148", "390903", "6692632", "445408", "8133876", "264371"], ["6295630", "6255148", "390903", "6692632", "445408", "8133783", "255524"]], "state": "active"}, {"relevance": 1.0, "id": "seWYr2FXKzKTHPrrSf", "title": "BC Andorra vs ASP Promitheas", "description": "", "category": "sports", "labels": ["basketball", "sport"], "rank": 64, "local_rank": 82, "entities": [{"type": "venue", "entity_id": "W7VNHtawEUMh9DHjnzBzfx", "formatted_address": "Toffalos Stadium\n264 43 Patras\nGreece", "name": "Dimitris Tofalos Arena"}], "duration": 0, "start": "2019-12-18T17:30:00Z", "end": "2019-12-18T17:30:00Z", "updated": "2019-07-21T17:04:54Z", "first_seen": "2019-07-21T16:48:43Z", "timezone": "Europe/Athens", "location": [21.773404, 38.283757], "scope": "locality", "country": "GR", "place_hierarchies": [["6295630", "6255148", "390903", "6697810", "265491", "8133690", "255683"], ["6295630", "6255148", "390903", "6697810", "265491", "8133690", "254315"]], "state": "active"}, {"relevance": 1.0, "id": "4xWAhQPmRUHxCqSzSz", "title": "Hapoel Jerusalem vs BC AEK Athens", "description": "", "category": "sports", "labels": ["basketball", "sport"], "rank": 75, "local_rank": 89, "entities": [{"type": "venue", "entity_id": "S32NZYBmZaEYnZS5Z3RPwp", "formatted_address": "151 24 Marousi\nGreece", "name": "O.a.k.a. Indoor Hall"}], "duration": 0, "start": "2019-12-18T17:30:00Z", "end": "2019-12-18T17:30:00Z", "updated": "2019-08-04T03:23:34Z", "first_seen": "2019-08-04T03:23:16Z", "timezone": "Europe/Athens", "location": [23.798934, 38.040956], "scope": "locality", "country": "GR", "place_hierarchies": [["6295630", "6255148", "390903", "6692632", "445408", "8133770", "265243"], ["6295630", "6255148", "390903", "6692632", "264353", "8358544"]], "state": "active"}]}